{
  "name": "<%= app_name %>",
  "version": "1.0.0",
  "description": "",
  "authors": [
    "Pavlos Polianidis"
  ],
  "license": "MIT",
  "homepage": "",
  "private": true,
  "ignore": [
    "**/.*",
    "node_modules",
    "bower_components",
    "js/third-party",
    "test",
    "tests"
  ],
  "dependencies": {
    "angular-route": "~1.3.8",
    "jquery": "2.0.0",
    "modernizr": "2.6.2",
    "animate.css": "~3.2.0",
    "font-awesome": "4.2.0",
    "jquery-waypoints": "2.0.2",
    "angular": "~1.3.7",
    "bootstrap": "3.0.0",
    "angular-toastr": "~0.5.2",
    "angular-loading-bar": "~0.6.0"
  }
}
